Bayesian "Now-Cast" Estimation of Event Probabilities in Multi-Party Democracies • coalitions
…
Each row represents a polling agency and each row in the surveys column again contains a nested tibble with survey results from different time-points:

surveys %>%
    filter(pollster == "allensbach") %>%
    unnest(surveys)

## # A tibble: 42 x 6
##    pollster   date       start      end        respondents survey
##    <chr>      <date>     <date>     <date>           <dbl> <list>
##  1 allensbach 2018-02-23 2018-02-02 2018-02-15        1271 <tibble [7 × 3…
##  2 allensbach 2018-01-25 2018-01-05 2018-01-18        1221 <tibble [7 × 3…
##  3 allensbach 2017-12-21 2017-12-01 2017-12-14        1443 <tibble [7 × 3…
##  4 allensbach 2017-11-30 2017-11-22 2017-11-27        1299 <tibble [7 × 3…
##  5 allensbach 2017-10-25 2017-10-07 2017-10-19        1454 <tibble [7 × 3…
##  6 allensbach 2017-09-22 2017-09-13 2017-09-20        1074 <tibble [7 × 3…
##  7 allensbach 2017-09-19 2017-09-06 2017-09-14        1083 <tibble [7 × 3…
##  8 allensbach 2017-09-06 2017-08-22 2017-08-31        1043 <tibble [7 × 3…
##  9 allensbach 2017-08-22 2017-08-04 2017-08-17        1421 <tibble [7 × 3…
## 10 allensbach 2017-07-18 2017-07-01 2017-07-12        1403 <tibble [7 × 3…
## # ... with 32 more rows
…
