…
Each row represents a survey insitute and each row in the `surveys` column again contains a nested `tibble` with survey results from different time-points:

``` r
surveys %>%
    filter(pollster == "allensbach") %>%
    unnest()
```

    ## # A tibble: 38 x 6
    ##    pollster   date       start      end        respondents survey         
    ##    <chr>      <date>     <date>     <date>           <dbl> <list>         
    ##  1 allensbach 2017-10-25 2017-10-07 2017-10-19        1454 <tibble [7 × 3…
    ##  2 allensbach 2017-09-22 2017-09-13 2017-09-20        1074 <tibble [7 × 3…
    ##  3 allensbach 2017-09-19 2017-09-06 2017-09-14        1083 <tibble [7 × 3…
    ##  4 allensbach 2017-09-06 2017-08-22 2017-08-31        1043 <tibble [7 × 3…
    ##  5 allensbach 2017-08-22 2017-08-04 2017-08-17        1421 <tibble [7 × 3…
    ##  6 allensbach 2017-07-18 2017-07-01 2017-07-12        1403 <tibble [7 × 3…
    ##  7 allensbach 2017-06-20 2017-06-01 2017-06-15        1437 <tibble [7 × 3…
    ##  8 allensbach 2017-05-26 2017-05-05 2017-05-19        1457 <tibble [7 × 3…
    ##  9 allensbach 2017-04-25 2017-04-01 2017-04-13        1407 <tibble [7 × 3…
    ## 10 allensbach 2017-03-28 2017-03-06 2017-03-19        1397 <tibble [7 × 3…
    ## # ... with 28 more rows
…
