Do coalitions have a majority — have_majority • coalitions
…
#> [[1]]
#> # A tibble: 100 x 2
#>    cdu_fdp greens_left_spd
#>    <lgl>   <lgl>          
#>  1 TRUE    FALSE          
#>  2 FALSE   FALSE          
#>  3 FALSE   FALSE          
#>  4 FALSE   FALSE          
#>  5 FALSE   FALSE          
#>  6 FALSE   FALSE          
#>  7 FALSE   FALSE          
#>  8 FALSE   FALSE          
#>  9 FALSE   FALSE          
#> 10 FALSE   FALSE          
#> # … with 90 more rows
…
