Coalition probabilities in multi-party democracies • coalitions
…
Each row represents a survey insitute and each row in the surveys column again contains a nested tibble with survey results from different time-points:

library(dplyr)
library(tidyr)
surveys %>% 
    filter(institute == "allensbach") %>% 
    unnest()
## # A tibble: 30 x 6
##     institute      datum      start        end befragte           survey
##         <chr>     <date>     <date>     <date>    <dbl>           <list>
##  1 allensbach 2017-04-25 2017-04-01 2017-04-13     1407 <tibble [7 x 3]>
##  2 allensbach 2017-03-28 2017-03-06 2017-03-19     1397 <tibble [7 x 3]>
##  3 allensbach 2017-02-22 2017-02-01 2017-02-15     1542 <tibble [7 x 3]>
##  4 allensbach 2017-01-26 2017-01-05 2017-01-19     1441 <tibble [7 x 3]>
##  5 allensbach 2016-12-22 2016-12-01 2016-12-15     1459 <tibble [7 x 3]>
##  6 allensbach 2016-11-16 2016-10-28 2016-11-10     1436 <tibble [7 x 3]>
##  7 allensbach 2016-10-20 2016-10-01 2016-10-13     1458 <tibble [7 x 3]>
##  8 allensbach 2016-09-22 2016-09-03 2016-09-15     1407 <tibble [7 x 3]>
##  9 allensbach 2016-08-24 2016-08-03 2016-08-17     1496 <tibble [7 x 3]>
## 10 allensbach 2016-07-21 2016-07-01 2016-07-14     1466 <tibble [7 x 3]>
## # ... with 20 more rows
…
