Workflow • coalitions
…
## # A tibble: 6 x 4
##   datum      survey           draws             seats            
##   <date>     <list>           <list>            <list>           
## 1 2017-09-02 <tibble [7 x 3]> <tibble [10 x 7]> <tibble [60 x 3]>
## 2 2017-08-26 <tibble [7 x 3]> <tibble [10 x 7]> <tibble [60 x 3]>
## 3 2017-08-19 <tibble [7 x 3]> <tibble [10 x 7]> <tibble [60 x 3]>
## 4 2017-08-12 <tibble [7 x 3]> <tibble [10 x 7]> <tibble [60 x 3]>
## 5 2017-08-05 <tibble [7 x 3]> <tibble [10 x 7]> <tibble [60 x 3]>
## 6 2017-07-29 <tibble [7 x 3]> <tibble [10 x 7]> <tibble [60 x 3]>

## sim column indicates simulated elections (rows in draws column)
elong %>% slice(1) %>% select(seats) %>% unnest()

## # A tibble: 60 x 3
##      sim party  seats
##    <int> <chr>  <int>
##  1     1 cdu      237
##  2     1 spd      157
##  3     1 gruene    51
##  4     1 fdp       50
##  5     1 linke     57
##  6     1 afd       46
##  7     2 cdu      233
##  8     2 spd      155
##  9     2 gruene    51
## 10     2 fdp       48
## # ... with 50 more rows
…
Wrapper

There is a wrapper function that directly returns probabilities:

elong <- collapse_parties(emnid)
elong %>% get_probabilities(., nsim=10) %>% unnest()

## # A tibble: 36 x 3
##    datum      coalition        probability
##    <date>     <chr>                  <dbl>
##  1 2017-09-02 cdu                      0  
##  2 2017-09-02 cdu_fdp                  0  
##  3 2017-09-02 cdu_fdp_gruene         100  
##  4 2017-09-02 spd                      0  
##  5 2017-09-02 linke_spd                0  
##  6 2017-09-02 gruene_linke_spd         0  
##  7 2017-08-26 cdu                      0  
##  8 2017-08-26 cdu_fdp                 40.0
##  9 2017-08-26 cdu_fdp_gruene          60.0
## 10 2017-08-26 spd                      0  
## # ... with 26 more rows
…
