Workflow • coalitions
…
## # A tibble: 6 × 4
##   date       survey           draws             seats            
##   <date>     <list>           <list>            <list>           
## 1 2013-11-03 <tibble [7 × 3]> <tibble [10 × 7]> <tibble [45 × 3]>
## 2 2013-10-27 <tibble [7 × 3]> <tibble [10 × 7]> <tibble [45 × 3]>
## 3 2013-10-20 <tibble [7 × 3]> <tibble [10 × 7]> <tibble [45 × 3]>
## 4 2013-10-13 <tibble [7 × 3]> <tibble [10 × 7]> <tibble [50 × 3]>
## 5 2013-10-06 <tibble [7 × 3]> <tibble [10 × 7]> <tibble [50 × 3]>
## 6 2013-09-29 <tibble [7 × 3]> <tibble [10 × 7]> <tibble [49 × 3]>

## sim column indicates simulated elections (rows in draws column)
elong %>% slice(1) %>% select(seats) %>% unnest("seats")

## # A tibble: 45 × 3
##      sim party  seats
##    <int> <chr>  <int>
##  1     1 cdu       34
##  2     1 spd      281
##  3     1 greens    61
##  4     1 left      60
##  5     1 afd      162
##  6     2 cdu      285
##  7     2 spd       68
##  8     2 greens    63
##  9     2 left     182
## 10     3 cdu      282
## # ℹ 35 more rows
…
Wrapper

There is a wrapper function that directly returns probabilities:

elong <- collapse_parties(emnid)
elong %>% get_probabilities(., nsim=10) %>% unnest("probabilities")

## # A tibble: 36 × 3
##    date       coalition       probability
##    <date>     <chr>                 <dbl>
##  1 2013-11-03 cdu                      20
##  2 2013-11-03 cdu_fdp                   0
##  3 2013-11-03 cdu_fdp_greens           30
##  4 2013-11-03 spd                       0
##  5 2013-11-03 left_spd                 50
##  6 2013-11-03 greens_left_spd          30
##  7 2013-10-27 cdu                       0
##  8 2013-10-27 cdu_fdp                   0
##  9 2013-10-27 cdu_fdp_greens           50
## 10 2013-10-27 spd                       0
## # ℹ 26 more rows
…
